지도제작 대회
…
lee_tbl |> select(조사회사, 조사기간, 긍정, 부정)
#> # A tibble: 75 × 4
#>    조사회사 조사기간    긍정  부정
#>    <chr>    <date>     <dbl> <dbl>
#>  1 한국갤럽 2008-02-15    52    29
#>  2 한국갤럽 2008-05-15    21    69
#>  3 한국갤럽 2008-08-15    24    65
#>  4 한국갤럽 2008-11-15    32    55
#>  5 한국갤럽 2009-02-15    34    55
#>  6 한국갤럽 2009-05-15    27    55
#>  7 한국갤럽 2009-08-15    36    55
#>  8 한국갤럽 2009-11-15    47    45
#>  9 한국갤럽 2010-02-15    44    45
#> 10 한국갤럽 2010-05-15    49    41
#> # ℹ 65 more rows

park_tbl |> pivot_wider(names_from = 긍부정, values_from = 지지율) |> 
  filter(조사회사 == "한국갤럽")
#> # A tibble: 214 × 4
#>    조사회사 조사기간        긍정  부정
#>    <chr>    <chr>          <dbl> <dbl>
#>  1 한국갤럽 2013년 1월 3주    55    19
#>  2 한국갤럽 2013년 1월 4주    56    19
#>  3 한국갤럽 2013년 1월 5주    52    21
#>  4 한국갤럽 2013년 2월 1주    48    29
#>  5 한국갤럽 2013년 2월 2주    49    29
#>  6 한국갤럽 2013년 2월 3주    44    32
#>  7 한국갤럽 2013년 3월 3주    44    19
#>  8 한국갤럽 2013년 3월 4주    41    28
#>  9 한국갤럽 2013년 4월 1주    41    29
#> 10 한국갤럽 2013년 4월 2주    44    29
#> # ℹ 204 more rows

moon_tbl |> pivot_wider(names_from = 긍부정, values_from = 지지율) |> 
  filter(조사회사 == "한국갤럽")
#> # A tibble: 257 × 4
#>    조사회사 조사기간        긍정  부정
#>    <chr>    <chr>          <dbl> <dbl>
#>  1 한국갤럽 2017년 6월 1주    84     7
#>  2 한국갤럽 2017년 6월 2주    82    10
#>  3 한국갤럽 2017년 6월 3주    83    10
#>  4 한국갤럽 2017년 6월 4주    79    14
#>  5 한국갤럽 2017년 6월 5주    80    13
#>  6 한국갤럽 2017년 7월 1주    83     9
#>  7 한국갤럽 2017년 7월 2주    80    12
#>  8 한국갤럽 2017년 7월 3주    74    16
#>  9 한국갤럽 2017년 7월 4주    77    13
#> 10 한국갤럽 2017년 8월 1주    77    15
#> # ℹ 247 more rows
…
