지도제작 대회
…
url_tbl <- url_raw |> 
  mutate(시도명 = if_else(names %in% 
                         c("서울특별시", "부산광역시", "대구광역시", "인천광역시",
                           "광주광역시", "대전광역시", "울산광역시", "세종특별자치시",
                           "경기도", "강원도", "충청북도", "충청남도", "전라북도", 
                           "전라남도", "경상북도", "경상남도", "제주특별자치도"), names, NA_character_)) |> 
  fill(시도명, .direction = "down") |> 
  select(시도명, 선거구명 = names, url) |> 
  filter(시도명 != 선거구명) |> 
  mutate(url = URLdecode(url))

url_tbl
#> # A tibble: 506 × 3
#>    시도명     선거구명       url                         
#>    <chr>      <chr>          <chr>                       
#>  1 서울특별시 종로구         /wiki/종로구_(1988년_선거구)
#>  2 서울특별시 중구·성동구 갑 /wiki/중구·성동구_갑        
#>  3 서울특별시 중구·성동구 을 /wiki/중구·성동구_을        
#>  4 서울특별시 용산구         /wiki/용산구_(1988년_선거구)
#>  5 서울특별시 광진구 갑      /wiki/광진구_갑             
#>  6 서울특별시 이낙연         /wiki/이낙연                
#>  7 서울특별시 홍익표         /wiki/홍익표_(1967년)       
#>  8 서울특별시 박성준         /wiki/박성준_(정치인)       
#>  9 서울특별시 권영세         /wiki/권영세_(1959년)       
#> 10 서울특별시 전혜숙         /wiki/전혜숙                
#> # ℹ 496 more rows
…
