지도제작 대회
…
2 데이터

코드
library(readxl)
library(tidyverse)

mst_raw <- read_excel("data/인천서구강소연구개발특구 기업현황 데이터 요청사항_230618.xlsx", sheet = "환경산업연구단지 입주기업", skip = 1)

mst_tbl <- mst_raw %>% 
  janitor::clean_names(ascii = FALSE) %>% 
  select(!starts_with("x")) 

mst_tbl
#> # A tibble: 129 × 19
#>     연번 회사명        대표자명 전화번호 분야  이메일주소 사업자번호 주소  매출 
#>    <dbl> <chr>         <chr>    <chr>    <chr> <chr>      <chr>      <chr> <chr>
#>  1     1 주식회사 네…  전진오   070-422… 생활… neo@neost… 166-88-00… 인천… 5-9억
#>  2     2 프로덕트테크  박재민   <NA>     대기  <NA>       <NA>       인천… 5억 …
#>  3     3 (주)스피너스  조철호   02-2138… 폐기… ryam_cho@… 327-88-02… 인천… 5-9억
#>  4     4 한국도시재생… 이정학   032-467… 폐기… <NA>       339-87-00… 인천… 5-9억
#>  5     5 에코드릴 주…  박건준   02-808-… 대기  <NA>       116-88-01… 인천… 5-9억
#>  6     6 에코프로에이… 김종섭   043-210… 대기  ecopro@re… 283-87-02… 인천… 1,00…
#>  7     7 (주)어라운드… 최준영   070-485… 생활… aroundblu… 575-81-02… 인천… 5억 …
#>  8     8 주식회사 코…  이주혁   070-864… 생활… contact@c… 188-81-02… 인천… 10-4…
#>  9     9 주식회사 쉘…  최수빈   <NA>     생활… <NA>       443-87-02… 인천… 5억 …
#> 10    10 (주)에너지로… 이완구   032-573… 생활… e-road@e-… 120-88-03… 인천… 100-…
#> # ℹ 119 more rows
#> # ℹ 10 more variables: 녹색기술_녹색생활 <chr>, 기술1 <chr>, 기술2 <chr>,
#> #   기술3 <chr>, 개발예정품목 <chr>, 홈페이지 <chr>, 주요사업 <chr>,
#> #   주요취급품 <chr>, 주요매출처 <chr>, 비고 <chr>
…
