지도제작 대회
…
korea
#> # A tibble: 130 × 6
#>    name        country_code population   lat  long 도시명
#>    <chr>       <chr>             <dbl> <dbl> <dbl> <chr> 
#>  1 Seoul       KR             10349312  37.6  127. 서울  
#>  2 Busan       KR              3678555  35.1  129. 부산  
#>  3 Incheon     KR              2954955  37.5  127. 인천  
#>  4 Daegu       KR              2566540  35.9  129. 대구  
#>  5 Gwangju     KR              1490092  35.2  127. 광주  
#>  6 Daejeon     KR              1469543  36.3  127. 대전  
#>  7 Suwon       KR              1241311  37.3  127. 수원  
#>  8 Goyang-si   KR              1073069  37.7  127. 고양시
#>  9 Seongnam-si KR              1031935  37.4  127. 성남시
#> 10 Ulsan       KR               962865  35.5  129. 울산  
#> # ℹ 120 more rows
…
