지도제작 대회
…
election_code_list <- GET(data_portal_election_code_request) %>%
  content(as = "text") %>%
  jsonlite::fromJSON()

## 1.2. 데이터 정제 -------------------------
code_election <- election_code_list %>%
  pluck('getCommonSgCodeList') %>%
  pluck('item') %>%
  as_tibble() %>%
  janitor::clean_names(ascii = FALSE) %>%
  select(선거코드 = sg_id, 선거명 = sg_name, 선거구분 = sg_typecode)

code_election
#> # A tibble: 101 × 3
#>    선거코드 선거명               선거구분
#>    <chr>    <chr>                <chr>   
#>  1 19971218 제15대 대통령선거    0       
#>  2 19971218 대통령선거           1       
#>  3 20000413 제16대 국회의원선거  0       
#>  4 20000413 국회의원선거         2       
#>  5 20000413 비례대표국회의원선거 7       
#>  6 20021219 제16대 대통령선거    0       
#>  7 20021219 대통령선거           1       
#>  8 20040415 제17대 국회의원선거  0       
#>  9 20040415 국회의원선거         2       
#> 10 20040415 비례대표국회의원선거 7       
#> # ℹ 91 more rows
…
