지도제작 대회
…
4 표

코드
pop_tbl |> 
  filter(변경내역 != "변동없음") |> 
  select(시도명, 선거구, 변경내역) |> 
  arrange(시도명, 선거구)
#> # A tibble: 42 × 3
#>    시도명 선거구                         변경내역
#>    <chr>  <chr>                          <chr>   
#>  1 강원도 동해시삼척시                   소멸    
#>  2 강원도 동해시태백시삼척시정선군       생성    
#>  3 강원도 속초시고성군양양군             소멸    
#>  4 강원도 속초시인제군고성군양양군       생성    
#>  5 강원도 춘천시                         소멸    
#>  6 강원도 춘천시철원군화천군양구군갑     생성    
#>  7 강원도 춘천시철원군화천군양구군을     생성    
#>  8 강원도 태백시횡성군영월군평창군정선군 소멸    
#>  9 강원도 홍천군철원군화천군양구군인제군 소멸    
#> 10 강원도 홍천군횡성군영월군평창군       생성    
#> # ℹ 32 more rows
…
