지도제작 대회
…
grdp_raw <- read_excel("data/자치구별+지역내총생산(2015년+기준)_20231011134915.xlsx", skip = 0)

grdp_tbl <- grdp_raw |>
  janitor::clean_names(ascii = FALSE) |> 
  select(자치구 = 자치구별_2, contains("x2020")) |> 
  janitor::row_to_names(row_number = 1) |> 
  set_names(c("자치구", "GRDP", "GRDP_pcnt", "GRDP_2", "GRDP_pcnt2")) |> 
  select(자치구, GRDP) |> 
  mutate( GRDP = parse_number(GRDP)) |> 
  filter(자치구 != "소계") |> mutate(GRDP = GRDP / 1000000 )

grdp_tbl
#> # A tibble: 25 × 2
#>    자치구    GRDP
#>    <chr>    <dbl>
#>  1 종로구   33.9 
#>  2 중구     56.1 
#>  3 용산구   12.8 
#>  4 성동구   12.4 
#>  5 광진구    6.45
#>  6 동대문구  7.40
#>  7 중랑구    4.75
#>  8 성북구    6.19
#>  9 강북구    3.36
#> 10 도봉구    3.50
#> # ℹ 15 more rows
1.2 인구수

코드
pop_raw <- read_csv("data/202308_202308_주민등록인구및세대현황_월간.csv",
                   locale = locale('ko',encoding='euc-kr'))

seoul_pop <- pop_raw |> 
  select(구명 = 행정구역, 인구수 = `2023년08월_총인구수`) |> 
  mutate(구명 = str_extract(구명, "\\w+구")) |> 
  drop_na() |> 
  mutate(강북강남 = ifelse(구명 %in% c("은평구", "서대문구", "마포구", "종로구", "중구", "용산구", "동대문구", "성동구", "성북구", "중랑구", "광진구", "강북구", "도봉구", "노원구"), "강북", "강남")) |> 
  mutate(인구수 = 인구수 / 10000)

seoul_pop
#> # A tibble: 25 × 3
#>    구명     인구수 강북강남
#>    <chr>     <dbl> <chr>   
#>  1 종로구     14.0 강북    
#>  2 중구       12.1 강북    
#>  3 용산구     21.7 강북    
#>  4 성동구     27.9 강북    
#>  5 광진구     33.6 강북    
#>  6 동대문구   34.0 강북    
#>  7 중랑구     38.3 강북    
#>  8 성북구     42.8 강북    
#>  9 강북구     29.1 강북    
#> 10 도봉구     30.8 강북    
#> # ℹ 15 more rows

1.3 인구 GRDP

코드
pop_grdp <- seoul_pop |> 
  left_join(grdp_tbl, by = c("구명" = "자치구"))

pop_grdp
#> # A tibble: 25 × 4
#>    구명     인구수 강북강남  GRDP
#>    <chr>     <dbl> <chr>    <dbl>
#>  1 종로구     14.0 강북     33.9 
#>  2 중구       12.1 강북     56.1 
#>  3 용산구     21.7 강북     12.8 
#>  4 성동구     27.9 강북     12.4 
#>  5 광진구     33.6 강북      6.45
#>  6 동대문구   34.0 강북      7.40
#>  7 중랑구     38.3 강북      4.75
#>  8 성북구     42.8 강북      6.19
#>  9 강북구     29.1 강북      3.36
#> 10 도봉구     30.8 강북      3.50
#> # ℹ 15 more rows
…
