지도제작 대회 - 경기도 광명시
…
admin_code_raw <- read_excel("data/jsocde20230611/KIKcd_H.20230611.xlsx")

admin_code <- admin_code_raw %>% 
  mutate(시도 = str_sub(행정동코드, 1, 2),
         시군구 = str_sub(행정동코드, 1, 4),
         읍면동 = str_sub(행정동코드, 1, 8)) %>% 
  select(행정동코드, 시도, 시도명, 시군구, 시군구명, 읍면동, 읍면동명) 

admin_code %>%
  write_rds("data/admin_code.rds")

admin_code
#> # A tibble: 3,882 × 7
#>    행정동코드 시도  시도명     시군구 시군구명 읍면동   읍면동명  
#>    <chr>      <chr> <chr>      <chr>  <chr>    <chr>    <chr>     
#>  1 1100000000 11    서울특별시 1100   <NA>     11000000 <NA>      
#>  2 1111000000 11    서울특별시 1111   종로구   11110000 <NA>      
#>  3 1111051500 11    서울특별시 1111   종로구   11110515 청운효자동
#>  4 1111053000 11    서울특별시 1111   종로구   11110530 사직동    
#>  5 1111054000 11    서울특별시 1111   종로구   11110540 삼청동    
#>  6 1111055000 11    서울특별시 1111   종로구   11110550 부암동    
#>  7 1111056000 11    서울특별시 1111   종로구   11110560 평창동    
#>  8 1111057000 11    서울특별시 1111   종로구   11110570 무악동    
#>  9 1111058000 11    서울특별시 1111   종로구   11110580 교남동    
#> 10 1111060000 11    서울특별시 1111   종로구   11110600 가회동    
#> # ℹ 3,872 more rows
…
경기데이터드림 공공데이터 개방포털에서 초․중등학교 위치 현황(제공표준)에서 광명시만 해당 학교를 추출한다.

코드

gg_school <- read_excel("data/초․중등학교위치현황(제공표준).xlsx")

## 광명시 초등학교
km_school <- gg_school %>% 
  filter(학교급구분 == "초등학교",
         교육지원청명 == "경기도광명교육지원청") %>% 
  select(주소 = 소재지도로명주소, 학교명, 경도, 위도, 설립형태, 설립일자)

km_school
#> # A tibble: 25 × 6
#>    주소                        학교명         경도       위도  설립형태 설립일자
#>    <chr>                       <chr>          <chr>      <chr> <chr>    <chr>   
#>  1 경기도 광명시 가마산로 28   도덕초등학교   126.86980… 37.4… 공립     1986-04…
#>  2 경기도 광명시 성채안로 16   충현초등학교   126.88630… 37.4… 공립     2011-03…
#>  3 경기도 광명시 한내일로 5    구름산초등학교 126.88414… 37.4… 공립     2010-03…
#>  4 경기도 광명시 소하일로 45   소하초등학교   126.88736… 37.4… 공립     1997-05…
#>  5 경기도 광명시 도덕공원로 5  안현초등학교   126.86754… 37.4… 공립     2010-03…
#>  6 경기도 광명시 안현로 16     하안초등학교   126.87394… 37.4… 공립     1989-10…
#>  7 경기도 광명시 금당로 11-7   가림초등학교   126.87837… 37.4… 공립     1990-03…
#>  8 경기도 광명시 가학로 247-55 안서초등학교   126.87117… 37.4… 공립     1964-03…
#>  9 경기도 광명시 범안로 657    온신초등학교   126.84586… 37.4… 공립     1947-04…
#> 10 경기도 광명시 광이로 21     광명초등학교   126.85721… 37.4… 공립     1971-03…
#> # ℹ 15 more rows
1.3 CCTV 정보

2022-01-27 등록된 경기도 광명시_어린이보호구역 내 CCTV 정보_API를 공공데이터포털에서 다운로드 받는다.

코드

library(sf)

cctv_raw <- read_csv("data/보호구역내cctv정보.csv", locale=locale('ko',encoding='euc-kr'))

cctv_tbl <- cctv_raw %>% 
  select(용도 = INST_PURPS, 도로명주소=RDNMADR, 경도, 위도, 설치대수=CCTV_CNT, 일자=REF_DATE)

cctv_tbl
#> # A tibble: 98 × 6
#>    용도       도로명주소                     경도  위도 설치대수 일자      
#>    <chr>      <chr>                         <dbl> <dbl>    <dbl> <date>    
#>  1 어린이보호 경기도 광명시 안현로 80-2      127.  37.5        1 2021-10-01
#>  2 다목적     경기도 광명시 소하일로 45      127.  37.4        1 2021-10-26
#>  3 다목적     경기도 광명시 금당로 11-7      127.  37.5        4 2021-10-14
#>  4 어린이보호 경기도 광명시 한내로13번길 17  127.  37.5        1 2021-10-12
#>  5 다목적     경기도 광명시 금당로 11-7      127.  37.5        1 2021-10-14
#>  6 어린이보호 경기도 광명시 금당로 11-7      127.  37.5        1 2021-10-14
#>  7 다목적     경기도 광명시 소하일로 45      127.  37.4        1 2021-10-26
#>  8 다목적     경기도 광명시 금당로 71        127.  37.5        1 2021-10-14
#>  9 어린이보호 경기도 광명시 금당로 71        127.  37.5        1 2021-10-14
#> 10 다목적     경기도 광명시 한내일로 5       127.  37.5        1 2021-10-26
#> # ℹ 88 more rows
…
