지도제작 대회
…
precinct_tbl <- legislator_tbl |> 
  unnest(data)

precinct_tbl
#> # A tibble: 1,264 × 11
#>    선거코드 선거명       선거구분 num   sgId   sgTypecode sggName sdName wiwName
#>    <chr>    <chr>        <chr>    <chr> <chr>  <chr>      <chr>   <chr>  <chr>  
#>  1 20040415 국회의원선거 2        1     20040… 2          종로구  서울…  종로구 
#>  2 20040415 국회의원선거 2        2     20040… 2          중구    서울…  중구(… 
#>  3 20040415 국회의원선거 2        3     20040… 2          용산구  서울…  용산구 
#>  4 20040415 국회의원선거 2        4     20040… 2          성동구… 서울…  성동구 
#>  5 20040415 국회의원선거 2        5     20040… 2          성동구… 서울…  성동구 
#>  6 20040415 국회의원선거 2        6     20040… 2          광진구… 서울…  광진구 
#>  7 20040415 국회의원선거 2        7     20040… 2          광진구… 서울…  광진구 
#>  8 20040415 국회의원선거 2        8     20040… 2          동대문… 서울…  동대문…
#>  9 20040415 국회의원선거 2        9     20040… 2          동대문… 서울…  동대문…
#> 10 20040415 국회의원선거 2        10    20040… 2          중랑구… 서울…  중랑구 
#> # ℹ 1,254 more rows
#> # ℹ 2 more variables: sggJungsu <chr>, sOrder <chr>
…
