지도제작 대회
…
age_tbl |> 
  filter(str_detect(연령, "40"))
#> # A tibble: 34 × 5
#>    행정기관       성별  연령  인구수 연령대
#>    <chr>          <chr> <chr>  <dbl> <chr> 
#>  1 서울특별시     남    40_44 364892 -19   
#>  2 부산광역시     남    40_44 127280 -19   
#>  3 대구광역시     남    40_44  88337 -19   
#>  4 인천광역시     남    40_44 127532 -19   
#>  5 광주광역시     남    40_44  57462 -19   
#>  6 대전광역시     남    40_44  55650 -19   
#>  7 울산광역시     남    40_44  47693 -19   
#>  8 세종특별자치시 남    40_44  20453 -19   
#>  9 경기도         남    40_44 594508 -19   
#> 10 강원특별자치도 남    40_44  52391 -19   
#> # ℹ 24 more rows
…
