지도제작 대회
…
코드
sf_use_s2(FALSE)

centroids <- precinct |> 
  st_centroid() |> 
  st_coordinates() %>% 
  as_tibble()

precinct_centroids <- precinct |> 
  st_drop_geometry() |> 
  as_tibble() |> 
  bind_cols(centroids)

precinct_centroids
#> # A tibble: 253 × 6
#>    SGG_Code SGG_1 SGG_2                               SGG_3              X     Y
#>       <int> <chr> <chr>                               <chr>          <dbl> <dbl>
#>  1  2270202 대구  대구광역시 동구을                   대구 동구을     129.  35.9
#>  2  2270101 대구  대구광역시 중구남구                 대구 중구남구   129.  35.8
#>  3  2412001 경기  경기도 고양시갑                     경기 고양갑     127.  37.7
#>  4  2411002 경기  경기도 안양시동안구을               경기 안양동안…  127.  37.4
#>  5  2480802 경남  경상남도 김해시을                   경남 김해을     129.  35.2
#>  6  2410301 경기  경기도 수원시병                     경기 수원병     127.  37.3
#>  7  2280702 인천  인천광역시 계양구을                 인천 계양을     127.  37.6
#>  8  2110601 서울  서울특별시 동대문구갑               서울 동대문갑   127.  37.6
#>  9  2460702 전남  전라남도 순천시광양시곡성군구례군을 전남 순천광양…  127.  35.2
#> 10  2440103 충남  충청남도 천안시병                   충남 천안병     127.  36.7
#> # ℹ 243 more rows
…
