지도제작 대회
…
moon_html <- read_html("https://ko.wikipedia.org/wiki/문재인의_대통령_순방_목록")

moon_raw <- moon_html |> 
  html_elements("table") |> 
  html_table()

moon_h3 <- moon_html |> 
  html_elements("h3") |> 
  html_text()

names(moon_raw) <- moon_h3[1:6]

map_df(moon_raw[c(1:5)], rbind)
#> # A tibble: 58 × 5
#>    나라           장소             일자                `세부 내용`         사진 
#>    <chr>          <chr>            <chr>               <chr>               <lgl>
#>  1 미국           워싱턴 D.C.      6월 28일~7월 3일    공식 실무 방문.[1]  NA   
#>  2 독일           베를린, 함부르크 7월 5일~7월 8일     2017년 함부르크 G2… NA   
#>  3 러시아         블라디보스토크   9월 6일~9월 7일     공식 방문. 동방경…  NA   
#>  4 미국           뉴욕             9월 19일~9월 21일   실무 방문. 유엔 총… NA   
#>  5 인도네시아     자카르타         11월 8일~11월 10일  국빈 방문.[11]      NA   
#>  6 베트남         다낭             11월 10일~11월 12일 2017년 다낭 APEC …  NA   
#>  7 필리핀         마닐라           11월 12일~11월 14일 동아시아 정상회의 … NA   
#>  8 중화인민공화국 베이징시, 충칭시 12월 13일~12월 16일 국빈 방문.[16]      NA   
#>  9 베트남         하노이           3월 22일~3월 24일   국빈 방문.[17]      NA   
#> 10 아랍에미리트   아부다비, 두바이 3월 24일~3월 27일   공식 방문.[18]      NA   
#> # ℹ 48 more rows
…
tour_yoon_tbl <- tour_yoon_dat |>
  separate(일자, into = c("출국일", "귀국일"), sep = "~") |>
  mutate(귀국일 = ifelse(is.na(귀국일), "15일", 귀국일)) |> # 우크라이나
  separate(출국일, into = c("출국월", "출국일"), sep = "월 ?") |> 
  mutate(귀국월 = 출국월,
         귀국일 = parse_number(귀국일)) |> 
  mutate(출국날짜 = ymd(paste(연도, 출국월, 출국일, sep = "-")),
         귀국날짜 = ymd(paste(연도, 귀국월, 귀국일, sep = "-"))) |> 
  mutate(상대국 = str_remove(상대국, "\\s?행정구")) |>
  select(출국날짜, 귀국날짜, 상대국, 상대방, 비고)

tour_yoon_tbl
#> # A tibble: 21 × 5
#>    출국날짜   귀국날짜   상대국       상대방                           비고     
#>    <date>     <date>     <chr>        <chr>                            <chr>    
#>  1 2022-06-27 2022-06-30 스페인       북대서양 조약 기구               "첫 국외…
#>  2 2022-09-18 2022-09-19 영국         -                                "엘리자… 
#>  3 2022-09-20 2022-09-22 미국         국제연합                         "첫 UN … 
#>  4 2022-09-22 2022-09-23 캐나다       쥐스탱 트뤼도 총리               "첫 정상…
#>  5 2022-11-11 2022-11-14 캄보디아     아세안                           ""       
#>  6 2022-11-14 2022-11-15 인도네시아   G20                              ""       
#>  7 2023-01-14 2023-01-17 아랍에미리트 무함마드 빈 자이드 알나얀 대통령 "국빈방… 
#>  8 2023-01-17 2023-01-20 스위스       -                                "세계경… 
#>  9 2023-03-16 2023-03-17 일본         기시다 후미오 총리               "2023년 …
#> 10 2023-04-24 2023-04-30 미국         조 바이든 대통령                 "2023년 …
#> # ℹ 11 more rows
…
